{
  "name": "Society",
  "version": "1.0.0",
  "title": " Society Manager Service",
  "description": "",
  "sampleUrl": false,
  "apidoc": "0.2.0",
  "generator": {
    "name": "apidoc",
    "time": "2016-10-19T06:21:23.367Z",
    "url": "http://apidocjs.com",
    "version": "0.16.1"
  }
}
